{
    "coord": {
        "lon": 21.33,
        "lat": 48.67
    },
    "weather": [{
        "id": 802,
        "main": "Clouds",
        "description": "scattered clouds",
        "icon": "03n"
    }],
    "base": "stations",
    "main": {
        "temp": 6,
        "pressure": 1031,
        "humidity": 60,
        "temp_min": 6,
        "temp_max": 6
    },
    "visibility": 10000,
    "wind": {
        "speed": 4.6,
        "deg": 10
    },
    "clouds": {
        "all": 40
    },
    "dt": 1550176200,
    "sys": {
        "type": 1,
        "id": 7049,
        "message": 0.0044,
        "country": "SK",
        "sunrise": 1550123006,
        "sunset": 1550159695
    },
    "id": 865084,
    "name": "Košický Kraj",
    "cod": 200
}