{
    "jsonrpc": "2.0",
    "result": [{
        "Nazov": "EN 442 Slovakia",
        "Popis": "(01.02.2019 19:46) Humenné -> Čadca št. hr. (02.02.2019 02:03)",
        "Meska": 3,
        "MeskaColor": "green",
        "MeskaText": "V stanici Svit meškal 3 minúty",
        "MeskaTextColor": "#ff0000",
        "InfoZoStanice": "Svit",
        "Cas": "01.02.2019 23:35",
        "CasPlan": "01.02.2019 23:32",
        "Dopravca": "Železničná spoločnosť Slovensko,a.s.",
        "Poznamka": "",
        "Position": [49.0609, 20.19815],
        "Trasa": [{
            "Key": "30",
            "Value": [
                [48.93015, 21.90119],
                [48.90324, 21.84146],
                [48.889271, 21.832971],
                [48.86766, 21.82483],
                [48.84374, 21.82732],
                [48.8181, 21.8435],
                [48.79786, 21.86005],
                [48.75074, 21.89858],
                [48.729827, 21.88689],
                [48.69636, 21.85185],
                [48.68898, 21.84448],
                [48.67913, 21.83458],
                [48.65229, 21.77576],
                [48.63306, 21.71184],
                [48.61264, 21.629827],
                [48.60062, 21.57339],
                [48.60604, 21.56711],
                [48.61608, 21.53327],
                [48.64368, 21.48874],
                [48.67311, 21.42887],
                [48.65159, 21.40116],
                [48.63683, 21.38213],
                [48.62929, 21.37178],
                [48.67004, 21.29588],
                [48.685606, 21.273994],
                [48.7087, 21.266058],
                [48.72291, 21.26872],
                [48.75592, 21.25324],
                [48.7958, 21.24601],
                [48.83629, 21.21885],
                [48.85288, 21.22393],
                [48.861694, 21.215951],
                [48.85624, 21.15561],
                [48.87403, 21.133704],
                [48.87515, 21.10961],
                [48.873402, 21.101507],
                [48.88933, 21.04195],
                [48.89469, 21.01324],
                [48.913748, 20.946724],
                [48.922767, 20.925908],
                [48.92171, 20.88621],
                [48.93557, 20.80377],
                [48.925968, 20.748389],
                [48.92556, 20.71732],
                [48.92566, 20.70039],
                [48.91706, 20.66889],
                [48.91024, 20.63426],
                [48.91872, 20.58344],
                [48.94195, 20.5797],
                [48.95041, 20.56151],
                [48.95326, 20.52336],
                [48.96482, 20.473823],
                [48.973675, 20.460614],
                [48.990581, 20.417235],
                [48.9955, 20.405],
                [49.0045, 20.3797],
                [49.02353, 20.31548],
                [49.06002, 20.29486],
                [49.0609, 20.19815]
            ]
        }, {
            "Key": "10",
            "Value": [
                [49.0609, 20.19815],
                [49.059807, 20.141984],
                [49.062389, 20.083024],
                [49.08355, 20.06547],
                [49.074706, 20.027544],
                [49.0663, 19.9873],
                [49.050259, 19.916466],
                [49.0256, 19.78629],
                [49.03804, 19.72136],
                [49.0593, 19.6954],
                [49.0765, 19.6521],
                [49.092, 19.60618],
                [49.091258, 19.518573],
                [49.08784, 19.47344],
                [49.09982, 19.41664],
                [49.08709, 19.35205],
                [49.08358, 19.30903],
                [49.08607, 19.28141],
                [49.10022, 19.247],
                [49.12263, 19.19457],
                [49.12698, 19.17215],
                [49.144605, 19.172966],
                [49.152946, 19.129828],
                [49.14303, 19.09081],
                [49.12641, 19.08362],
                [49.10984, 19.03832],
                [49.103657, 18.988087],
                [49.10815, 18.95445],
                [49.11519, 18.92442],
                [49.182068, 18.869405],
                [49.20188, 18.84664],
                [49.212454, 18.804173],
                [49.217289, 18.785548],
                [49.2271, 18.74604],
                [49.233573, 18.734264],
                [49.266656, 18.75246],
                [49.28088, 18.758104],
                [49.306219, 18.784211],
                [49.347492, 18.806698],
                [49.359905, 18.818443],
                [49.378727, 18.835748],
                [49.4185, 18.8322],
                [49.43667, 18.794],
                [49.44528, 18.78681],
                [49.48197, 18.78913],
                [49.49439, 18.76439]
            ]
        }],
        "Angle": -91,
        "OrderInStation": 0
    }, {
        "Nazov": "R 613 TERMIX NIKA",
        "Popis": "(01.02.2019 18:13) Bratislava hlavná stanica -> Košice (01.02.2019 23:53)",
        "Meska": 0,
        "MeskaColor": "green",
        "MeskaText": "V stanici Kysak išiel včas",
        "MeskaTextColor": "#006AA0",
        "InfoZoStanice": "Kysak",
        "Cas": "01.02.2019 23:41",
        "CasPlan": "01.02.2019 23:41",
        "Dopravca": "Železničná spoločnosť Slovensko,a.s.",
        "Poznamka": "",
        "Position": [48.85288, 21.22393],
        "Trasa": [{
            "Key": "30",
            "Value": [
                [48.1589, 17.1067],
                [48.18688, 17.13305],
                [48.193442, 17.143779],
                [48.20888, 17.16075],
                [48.24757, 17.2177],
                [48.24854, 17.21913],
                [48.26711, 17.246],
                [48.28259, 17.2707],
                [48.3019, 17.34554],
                [48.30539, 17.45008],
                [48.309103, 17.457774],
                [48.32293, 17.48665],
                [48.3626, 17.5615],
                [48.369779, 17.58482],
                [48.38156, 17.691],
                [48.44168, 17.75852],
                [48.47813, 17.764386],
                [48.50668, 17.77358],
                [48.52554, 17.78994],
                [48.59647, 17.81507],
                [48.65131, 17.836156],
                [48.651418, 17.836198],
                [48.655942, 17.837847],
                [48.68324, 17.84563],
                [48.697627, 17.843407],
                [48.70217, 17.84247],
                [48.738305, 17.834244],
                [48.75144, 17.83592],
                [48.801744, 17.874076],
                [48.83698, 17.91943],
                [48.8538, 17.94458],
                [48.878626, 17.976347],
                [48.90075, 18.02243],
                [48.8966, 18.05174],
                [48.910079, 18.088084],
                [48.93764, 18.113322],
                [48.9663, 18.16765],
                [49.00207, 18.23619],
                [49.01474, 18.25782],
                [49.03435, 18.29039],
                [49.0566, 18.31309],
                [49.091321, 18.322228],
                [49.11377, 18.32717],
                [49.122705, 18.334038],
                [49.1291, 18.355],
                [49.1349, 18.3833],
                [49.12262, 18.43227],
                [49.13989, 18.46806],
                [49.1684, 18.4874],
                [49.1713, 18.491],
                [49.177235, 18.500066],
                [49.1975, 18.5356],
                [49.20764, 18.55325],
                [49.24083, 18.643363],
                [49.2545, 18.65888],
                [49.231261, 18.72876],
                [49.2271, 18.74604],
                [49.217289, 18.785548],
                [49.212454, 18.804173],
                [49.20188, 18.84664],
                [49.182068, 18.869405],
                [49.11519, 18.92442],
                [49.10815, 18.95445],
                [49.103657, 18.988087],
                [49.10984, 19.03832],
                [49.12641, 19.08362],
                [49.14303, 19.09081],
                [49.152946, 19.129828],
                [49.144605, 19.172966],
                [49.12698, 19.17215],
                [49.12263, 19.19457],
                [49.10022, 19.247],
                [49.08607, 19.28141],
                [49.08358, 19.30903],
                [49.08709, 19.35205],
                [49.09051, 19.36645],
                [49.09982, 19.41664],
                [49.08784, 19.47344],
                [49.091258, 19.518573],
                [49.092, 19.60618],
                [49.0765, 19.6521],
                [49.0593, 19.6954],
                [49.03804, 19.72136],
                [49.0256, 19.78629],
                [49.050259, 19.916466],
                [49.0663, 19.9873],
                [49.074706, 20.027544],
                [49.08355, 20.06547],
                [49.062389, 20.083024],
                [49.059807, 20.141984],
                [49.0609, 20.19815],
                [49.06002, 20.29486],
                [49.02353, 20.31548],
                [49.0045, 20.3797],
                [48.9955, 20.405],
                [48.990581, 20.417235],
                [48.973675, 20.460614],
                [48.96482, 20.473823],
                [48.95326, 20.52336],
                [48.95041, 20.56151],
                [48.94195, 20.5797],
                [48.91872, 20.58344],
                [48.91024, 20.63426],
                [48.91706, 20.66889],
                [48.92566, 20.70039],
                [48.92556, 20.71732],
                [48.925968, 20.748389],
                [48.93557, 20.80377],
                [48.92171, 20.88621],
                [48.922767, 20.925908],
                [48.913748, 20.946724],
                [48.89469, 21.01324],
                [48.88933, 21.04195],
                [48.873402, 21.101507],
                [48.87515, 21.10961],
                [48.87403, 21.133704],
                [48.85624, 21.15561],
                [48.861694, 21.215951],
                [48.85288, 21.22393]
            ]
        }, {
            "Key": "10",
            "Value": [
                [48.85288, 21.22393],
                [48.83629, 21.21885],
                [48.7958, 21.24601],
                [48.75592, 21.25324],
                [48.72291, 21.26872]
            ]
        }],
        "Angle": -161,
        "OrderInStation": 0
    }, {
        "Nazov": "R 614 Zemplín",
        "Popis": "(01.02.2019 21:54) Humenné -> Bratislava-Nové Mesto (02.02.2019 06:51)",
        "Meska": 0,
        "MeskaColor": "green",
        "MeskaText": "V stanici Košice išiel včas",
        "MeskaTextColor": "#006AA0",
        "InfoZoStanice": "Košice",
        "Cas": "01.02.2019 23:25",
        "CasPlan": "01.02.2019 23:25",
        "Dopravca": "Železničná spoločnosť Slovensko,a.s.",
        "Poznamka": "",
        "Position": [48.72291, 21.26872],
        "Trasa": [{
            "Key": "30",
            "Value": [
                [48.93015, 21.90119],
                [48.90324, 21.84146],
                [48.889271, 21.832971],
                [48.86766, 21.82483],
                [48.84374, 21.82732],
                [48.8181, 21.8435],
                [48.79786, 21.86005],
                [48.75074, 21.89858],
                [48.729827, 21.88689],
                [48.69636, 21.85185],
                [48.68898, 21.84448],
                [48.67913, 21.83458],
                [48.65229, 21.77576],
                [48.63306, 21.71184],
                [48.61264, 21.629827],
                [48.60062, 21.57339],
                [48.60604, 21.56711],
                [48.61608, 21.53327],
                [48.64368, 21.48874],
                [48.67311, 21.42887],
                [48.65159, 21.40116],
                [48.63683, 21.38213],
                [48.62929, 21.37178],
                [48.67004, 21.29588],
                [48.685606, 21.273994],
                [48.7087, 21.266058],
                [48.72291, 21.26872]
            ]
        }, {
            "Key": "10",
            "Value": [
                [48.72291, 21.26872],
                [48.75592, 21.25324],
                [48.7958, 21.24601],
                [48.83629, 21.21885],
                [48.85288, 21.22393],
                [48.861694, 21.215951],
                [48.85624, 21.15561],
                [48.87403, 21.133704],
                [48.87515, 21.10961],
                [48.873402, 21.101507],
                [48.88933, 21.04195],
                [48.89469, 21.01324],
                [48.913748, 20.946724],
                [48.922767, 20.925908],
                [48.92171, 20.88621],
                [48.93557, 20.80377],
                [48.925968, 20.748389],
                [48.92556, 20.71732],
                [48.92566, 20.70039],
                [48.91706, 20.66889],
                [48.91024, 20.63426],
                [48.91872, 20.58344],
                [48.94195, 20.5797],
                [48.95041, 20.56151],
                [48.95326, 20.52336],
                [48.96482, 20.473823],
                [48.973675, 20.460614],
                [48.990581, 20.417235],
                [48.9955, 20.405],
                [49.0045, 20.3797],
                [49.02353, 20.31548],
                [49.06002, 20.29486],
                [49.0609, 20.19815],
                [49.059807, 20.141984],
                [49.062389, 20.083024],
                [49.08355, 20.06547],
                [49.074706, 20.027544],
                [49.0663, 19.9873],
                [49.050259, 19.916466],
                [49.0256, 19.78629],
                [49.03804, 19.72136],
                [49.0593, 19.6954],
                [49.0765, 19.6521],
                [49.092, 19.60618],
                [49.091258, 19.518573],
                [49.08784, 19.47344],
                [49.09982, 19.41664],
                [49.08709, 19.35205],
                [49.08358, 19.30903],
                [49.08607, 19.28141],
                [49.10022, 19.247],
                [49.12263, 19.19457],
                [49.12698, 19.17215],
                [49.144605, 19.172966],
                [49.152946, 19.129828],
                [49.14303, 19.09081],
                [49.12641, 19.08362],
                [49.10984, 19.03832],
                [49.103657, 18.988087],
                [49.10815, 18.95445],
                [49.11519, 18.92442],
                [49.182068, 18.869405],
                [49.20188, 18.84664],
                [49.212454, 18.804173],
                [49.217289, 18.785548],
                [49.2271, 18.74604],
                [49.231261, 18.72876],
                [49.2545, 18.65888],
                [49.24083, 18.643363],
                [49.20764, 18.55325],
                [49.1975, 18.5356],
                [49.177235, 18.500066],
                [49.1713, 18.491],
                [49.1684, 18.4874],
                [49.13989, 18.46806],
                [49.12262, 18.43227],
                [49.1349, 18.3833],
                [49.1291, 18.355],
                [49.122705, 18.334038],
                [49.11377, 18.32717],
                [49.091321, 18.322228],
                [49.0566, 18.31309],
                [49.03435, 18.29039],
                [49.01474, 18.25782],
                [49.00207, 18.23619],
                [48.9663, 18.16765],
                [48.93764, 18.113322],
                [48.910079, 18.088084],
                [48.8966, 18.05174],
                [48.90075, 18.02243],
                [48.878626, 17.976347],
                [48.8538, 17.94458],
                [48.83698, 17.91943],
                [48.801744, 17.874076],
                [48.75144, 17.83592],
                [48.738305, 17.834244],
                [48.70217, 17.84247],
                [48.697627, 17.843407],
                [48.68324, 17.84563],
                [48.655942, 17.837847],
                [48.651418, 17.836198],
                [48.65131, 17.836156],
                [48.59647, 17.81507],
                [48.52554, 17.78994],
                [48.50668, 17.77358],
                [48.47813, 17.764386],
                [48.44168, 17.75852],
                [48.38156, 17.691],
                [48.369779, 17.58482],
                [48.3626, 17.5615],
                [48.32293, 17.48665],
                [48.309103, 17.457774],
                [48.30539, 17.45008],
                [48.3019, 17.34554],
                [48.28259, 17.2707],
                [48.26711, 17.246],
                [48.24854, 17.21913],
                [48.24757, 17.2177],
                [48.20888, 17.16075],
                [48.193442, 17.143779],
                [48.18688, 17.13305],
                [48.1589, 17.1067],
                [48.171969, 17.14668]
            ]
        }],
        "Angle": -26,
        "OrderInStation": 0
    }, {
        "Nazov": "R 615 Zemplín",
        "Popis": "(01.02.2019 22:16) Bratislava-Nové Mesto -> Humenné (02.02.2019 06:33)",
        "Meska": 23,
        "MeskaColor": "orange",
        "MeskaText": "V stanici Trnava meškal 23 minút",
        "MeskaTextColor": "#ff0000",
        "InfoZoStanice": "Trnava",
        "Cas": "01.02.2019 23:41",
        "CasPlan": "01.02.2019 23:18",
        "Dopravca": "Železničná spoločnosť Slovensko,a.s.",
        "Poznamka": "",
        "Position": [48.369779, 17.58482],
        "Trasa": [{
            "Key": "30",
            "Value": [
                [48.171969, 17.14668],
                [48.1589, 17.1067],
                [48.18688, 17.13305],
                [48.193442, 17.143779],
                [48.20888, 17.16075],
                [48.24757, 17.2177],
                [48.24854, 17.21913],
                [48.26711, 17.246],
                [48.28259, 17.2707],
                [48.3019, 17.34554],
                [48.30539, 17.45008],
                [48.309103, 17.457774],
                [48.32293, 17.48665],
                [48.3626, 17.5615],
                [48.369779, 17.58482]
            ]
        }, {
            "Key": "10",
            "Value": [
                [48.369779, 17.58482],
                [48.38156, 17.691],
                [48.44168, 17.75852],
                [48.47813, 17.764386],
                [48.50668, 17.77358],
                [48.52554, 17.78994],
                [48.59647, 17.81507],
                [48.65131, 17.836156],
                [48.651418, 17.836198],
                [48.655942, 17.837847],
                [48.68324, 17.84563],
                [48.697627, 17.843407],
                [48.70217, 17.84247],
                [48.738305, 17.834244],
                [48.75144, 17.83592],
                [48.801744, 17.874076],
                [48.83698, 17.91943],
                [48.8538, 17.94458],
                [48.878626, 17.976347],
                [48.90075, 18.02243],
                [48.8966, 18.05174],
                [48.910079, 18.088084],
                [48.93764, 18.113322],
                [48.9663, 18.16765],
                [49.00207, 18.23619],
                [49.01474, 18.25782],
                [49.03435, 18.29039],
                [49.0566, 18.31309],
                [49.091321, 18.322228],
                [49.11377, 18.32717],
                [49.122705, 18.334038],
                [49.1291, 18.355],
                [49.1349, 18.3833],
                [49.12262, 18.43227],
                [49.13989, 18.46806],
                [49.1684, 18.4874],
                [49.1713, 18.491],
                [49.177235, 18.500066],
                [49.1975, 18.5356],
                [49.20764, 18.55325],
                [49.24083, 18.643363],
                [49.2545, 18.65888],
                [49.231261, 18.72876],
                [49.2271, 18.74604],
                [49.217289, 18.785548],
                [49.212454, 18.804173],
                [49.20188, 18.84664],
                [49.182068, 18.869405],
                [49.11519, 18.92442],
                [49.10815, 18.95445],
                [49.103657, 18.988087],
                [49.10984, 19.03832],
                [49.12641, 19.08362],
                [49.14303, 19.09081],
                [49.152946, 19.129828],
                [49.144605, 19.172966],
                [49.12698, 19.17215],
                [49.12263, 19.19457],
                [49.10022, 19.247],
                [49.08607, 19.28141],
                [49.08358, 19.30903],
                [49.08709, 19.35205],
                [49.09982, 19.41664],
                [49.08784, 19.47344],
                [49.091258, 19.518573],
                [49.092, 19.60618],
                [49.0765, 19.6521],
                [49.0593, 19.6954],
                [49.03804, 19.72136],
                [49.0256, 19.78629],
                [49.050259, 19.916466],
                [49.0663, 19.9873],
                [49.074706, 20.027544],
                [49.08355, 20.06547],
                [49.062389, 20.083024],
                [49.059807, 20.141984],
                [49.0609, 20.19815],
                [49.06002, 20.29486],
                [49.02353, 20.31548],
                [49.0045, 20.3797],
                [48.9955, 20.405],
                [48.990581, 20.417235],
                [48.973675, 20.460614],
                [48.96482, 20.473823],
                [48.95326, 20.52336],
                [48.95041, 20.56151],
                [48.94195, 20.5797],
                [48.91872, 20.58344],
                [48.91024, 20.63426],
                [48.91706, 20.66889],
                [48.92566, 20.70039],
                [48.92556, 20.71732],
                [48.925968, 20.748389],
                [48.93557, 20.80377],
                [48.92171, 20.88621],
                [48.922767, 20.925908],
                [48.913748, 20.946724],
                [48.89469, 21.01324],
                [48.88933, 21.04195],
                [48.873402, 21.101507],
                [48.87515, 21.10961],
                [48.87403, 21.133704],
                [48.85624, 21.15561],
                [48.861694, 21.215951],
                [48.85288, 21.22393],
                [48.83629, 21.21885],
                [48.7958, 21.24601],
                [48.75592, 21.25324],
                [48.72291, 21.26872],
                [48.7087, 21.266058],
                [48.685606, 21.273994],
                [48.67004, 21.29588],
                [48.62929, 21.37178],
                [48.63683, 21.38213],
                [48.65159, 21.40116],
                [48.67311, 21.42887],
                [48.64368, 21.48874],
                [48.61608, 21.53327],
                [48.60604, 21.56711],
                [48.60062, 21.57339],
                [48.61264, 21.629827],
                [48.63306, 21.71184],
                [48.65229, 21.77576],
                [48.67913, 21.83458],
                [48.68898, 21.84448],
                [48.69636, 21.85185],
                [48.729827, 21.88689],
                [48.75074, 21.89858],
                [48.79786, 21.86005],
                [48.8181, 21.8435],
                [48.84374, 21.82732],
                [48.86766, 21.82483],
                [48.889271, 21.832971],
                [48.90324, 21.84146],
                [48.93015, 21.90119]
            ]
        }],
        "Angle": 83,
        "OrderInStation": 0
    }, {
        "Nazov": "RR 719 Beckov",
        "Popis": "(01.02.2019 22:13) Bratislava hlavná stanica -> Trenčín (01.02.2019 23:33)",
        "Meska": 24,
        "MeskaColor": "orange",
        "MeskaText": "V stanici Výh. Potvorice meškal 24 minút",
        "MeskaTextColor": "#ff0000",
        "InfoZoStanice": "Výh. Potvorice",
        "Cas": "01.02.2019 23:38",
        "CasPlan": "01.02.2019 23:14",
        "Dopravca": "Železničná spoločnosť Slovensko,a.s.",
        "Poznamka": "",
        "Position": [48.697627, 17.843407],
        "Trasa": [{
            "Key": "30",
            "Value": [
                [48.1589, 17.1067],
                [48.18688, 17.13305],
                [48.193442, 17.143779],
                [48.20888, 17.16075],
                [48.24757, 17.2177],
                [48.24854, 17.21913],
                [48.26711, 17.246],
                [48.28259, 17.2707],
                [48.3019, 17.34554],
                [48.30539, 17.45008],
                [48.309103, 17.457774],
                [48.32293, 17.48665],
                [48.3626, 17.5615],
                [48.369779, 17.58482],
                [48.38156, 17.691],
                [48.44168, 17.75852],
                [48.47813, 17.764386],
                [48.50668, 17.77358],
                [48.52554, 17.78994],
                [48.59647, 17.81507],
                [48.65131, 17.836156],
                [48.651418, 17.836198],
                [48.655942, 17.837847],
                [48.68324, 17.84563],
                [48.697627, 17.843407]
            ]
        }, {
            "Key": "10",
            "Value": [
                [48.697627, 17.843407],
                [48.70217, 17.84247],
                [48.738305, 17.834244],
                [48.75144, 17.83592],
                [48.801744, 17.874076],
                [48.83698, 17.91943],
                [48.8538, 17.94458],
                [48.878626, 17.976347],
                [48.90075, 18.02243],
                [48.8966, 18.05174]
            ]
        }],
        "Angle": -12,
        "OrderInStation": 0
    }, {
        "Nazov": "R 800 Poľana",
        "Popis": "(01.02.2019 21:12) Prešov -> Bratislava-Nové Mesto (02.02.2019 06:02)",
        "Meska": 0,
        "MeskaColor": "green",
        "MeskaText": "V stanici Tornaľa išiel včas",
        "MeskaTextColor": "#006AA0",
        "InfoZoStanice": "Tornaľa",
        "Cas": "01.02.2019 23:35",
        "CasPlan": "01.02.2019 23:35",
        "Dopravca": "Železničná spoločnosť Slovensko,a.s.",
        "Poznamka": "",
        "Position": [48.42268, 20.33092],
        "Trasa": [{
            "Key": "30",
            "Value": [
                [48.983379, 21.249126],
                [48.95686, 21.24086],
                [48.92614, 21.24745],
                [48.911472, 21.245198],
                [48.90065, 21.24558],
                [48.873332, 21.241086],
                [48.870272, 21.242382],
                [48.861856, 21.238981],
                [48.8588, 21.226637],
                [48.85288, 21.22393],
                [48.83629, 21.21885],
                [48.7958, 21.24601],
                [48.75592, 21.25324],
                [48.72291, 21.26872],
                [48.7087, 21.266058],
                [48.685606, 21.273994],
                [48.67927, 21.27623],
                [48.66866, 21.274338],
                [48.63143, 21.24837],
                [48.60974, 21.20715],
                [48.59126, 21.17186],
                [48.58636, 21.11114],
                [48.58641, 21.09787],
                [48.58645, 21.06858],
                [48.59103, 21.02178],
                [48.60123, 21.00288],
                [48.60585, 20.954],
                [48.60672, 20.94931],
                [48.59781, 20.88973],
                [48.59826, 20.83597],
                [48.59942, 20.8327],
                [48.60678, 20.76928],
                [48.59944, 20.69061],
                [48.601161, 20.643106],
                [48.63228, 20.60299],
                [48.63523, 20.54591],
                [48.63529, 20.51402],
                [48.61172, 20.48334],
                [48.58208, 20.46776],
                [48.56194, 20.44182],
                [48.55336, 20.41277],
                [48.5359, 20.38496],
                [48.51194, 20.38037],
                [48.4942, 20.37041],
                [48.48063, 20.35977],
                [48.46173, 20.348505],
                [48.45736, 20.34642],
                [48.42268, 20.33092]
            ]
        }, {
            "Key": "10",
            "Value": [
                [48.42268, 20.33092],
                [48.38955, 20.3267],
                [48.35494, 20.32814],
                [48.33663, 20.33453],
                [48.31737, 20.3296],
                [48.30244, 20.32943],
                [48.30518, 20.27793],
                [48.30916, 20.25673],
                [48.30719, 20.23042],
                [48.30528, 20.1956],
                [48.30513, 20.15654],
                [48.302787, 20.14237],
                [48.29954, 20.06125],
                [48.30083, 20.0275],
                [48.302618, 20.013004],
                [48.29632, 19.9798],
                [48.27714, 19.95512],
                [48.235021, 19.932182],
                [48.25055, 19.88937],
                [48.2671, 19.8774],
                [48.273225, 19.848915],
                [48.266341, 19.832382],
                [48.270497, 19.829743],
                [48.2738, 19.8274],
                [48.29701, 19.79157],
                [48.30426, 19.7417],
                [48.305378, 19.734342],
                [48.336, 19.6675],
                [48.36948, 19.62647],
                [48.40539, 19.59957],
                [48.43401, 19.58537],
                [48.44475, 19.57487],
                [48.46588, 19.54741],
                [48.48301, 19.51477],
                [48.51636, 19.46699],
                [48.52854, 19.44571],
                [48.53382, 19.40588],
                [48.53824, 19.35793],
                [48.55336, 19.31244],
                [48.55407, 19.28319],
                [48.55889, 19.26077],
                [48.56079, 19.23183],
                [48.572036, 19.177365],
                [48.5721, 19.1627],
                [48.5728, 19.14299],
                [48.56971, 19.1205],
                [48.57638, 18.98978],
                [48.58722, 18.9559],
                [48.58866, 18.90735],
                [48.5793, 18.8719],
                [48.57871, 18.87078],
                [48.56857, 18.85067],
                [48.53981, 18.77129],
                [48.52944, 18.73836],
                [48.485889, 18.727975],
                [48.47495, 18.71903],
                [48.46029, 18.69161],
                [48.43512, 18.68156],
                [48.41388, 18.64856],
                [48.38256, 18.60449],
                [48.34421, 18.56132],
                [48.32941, 18.55149],
                [48.314347, 18.537863],
                [48.3108, 18.53612],
                [48.29019, 18.54093],
                [48.28074, 18.54896],
                [48.247, 18.58209],
                [48.21109, 18.59264],
                [48.20371, 18.51956],
                [48.1854, 18.47304],
                [48.1597, 18.44969],
                [48.16098, 18.44231],
                [48.160774, 18.418191],
                [48.13849, 18.4021],
                [48.11551, 18.38807],
                [48.10299, 18.34472],
                [48.0982, 18.30558],
                [48.0984, 18.26589],
                [48.09806, 18.23331],
                [48.09068, 18.19751],
                [48.08545, 18.17267],
                [48.045443, 18.1675],
                [47.99509, 18.17413],
                [48.03501, 18.11389],
                [48.06018, 18.08182],
                [48.0926, 18.041],
                [48.11915, 18.00698],
                [48.15306, 17.92677],
                [48.14702, 17.86232],
                [48.159945, 17.817681],
                [48.1666, 17.79515],
                [48.18509, 17.72318],
                [48.19587, 17.62928],
                [48.208132, 17.543315],
                [48.21316, 17.509201],
                [48.21933, 17.45449],
                [48.2136, 17.41412],
                [48.20606, 17.3614],
                [48.19787, 17.30602],
                [48.19483, 17.25956],
                [48.1948, 17.20669],
                [48.188507, 17.149358],
                [48.18688, 17.13305],
                [48.1589, 17.1067],
                [48.171969, 17.14668]
            ]
        }],
        "Angle": -172,
        "OrderInStation": 0
    }, {
        "Nazov": "R 801 Poľana",
        "Popis": "(01.02.2019 22:34) Bratislava-Nové Mesto -> Prešov (02.02.2019 07:42)",
        "Meska": 0,
        "MeskaColor": "green",
        "MeskaText": "V stanici Bratislava hlavná stanica išiel včas",
        "MeskaTextColor": "#006AA0",
        "InfoZoStanice": "Bratislava hlavná stanica",
        "Cas": "01.02.2019 23:30",
        "CasPlan": "01.02.2019 23:30",
        "Dopravca": "Železničná spoločnosť Slovensko,a.s.",
        "Poznamka": "",
        "Position": [48.1589, 17.1067],
        "Trasa": [{
            "Key": "30",
            "Value": [
                [48.171969, 17.14668],
                [48.1589, 17.1067]
            ]
        }, {
            "Key": "10",
            "Value": [
                [48.1589, 17.1067],
                [48.18688, 17.13305],
                [48.188507, 17.149358],
                [48.1948, 17.20669],
                [48.19483, 17.25956],
                [48.19787, 17.30602],
                [48.20606, 17.3614],
                [48.2136, 17.41412],
                [48.21933, 17.45449],
                [48.21316, 17.509201],
                [48.208132, 17.543315],
                [48.19587, 17.62928],
                [48.18509, 17.72318],
                [48.1666, 17.79515],
                [48.159945, 17.817681],
                [48.14702, 17.86232],
                [48.15306, 17.92677],
                [48.11915, 18.00698],
                [48.0926, 18.041],
                [48.06018, 18.08182],
                [48.03501, 18.11389],
                [47.99509, 18.17413],
                [48.045443, 18.1675],
                [48.08545, 18.17267],
                [48.09068, 18.19751],
                [48.09806, 18.23331],
                [48.0984, 18.26589],
                [48.0982, 18.30558],
                [48.10299, 18.34472],
                [48.11551, 18.38807],
                [48.13849, 18.4021],
                [48.160774, 18.418191],
                [48.16098, 18.44231],
                [48.1597, 18.44969],
                [48.1854, 18.47304],
                [48.20371, 18.51956],
                [48.21109, 18.59264],
                [48.247, 18.58209],
                [48.28074, 18.54896],
                [48.29019, 18.54093],
                [48.3108, 18.53612],
                [48.314347, 18.537863],
                [48.32941, 18.55149],
                [48.34421, 18.56132],
                [48.38256, 18.60449],
                [48.41388, 18.64856],
                [48.43512, 18.68156],
                [48.46029, 18.69161],
                [48.47495, 18.71903],
                [48.485889, 18.727975],
                [48.52944, 18.73836],
                [48.53981, 18.77129],
                [48.56857, 18.85067],
                [48.57871, 18.87078],
                [48.5793, 18.8719],
                [48.58866, 18.90735],
                [48.58722, 18.9559],
                [48.57638, 18.98978],
                [48.56971, 19.1205],
                [48.5728, 19.14299],
                [48.5721, 19.1627],
                [48.572036, 19.177365],
                [48.56079, 19.23183],
                [48.55889, 19.26077],
                [48.55407, 19.28319],
                [48.55336, 19.31244],
                [48.53824, 19.35793],
                [48.53382, 19.40588],
                [48.52854, 19.44571],
                [48.51636, 19.46699],
                [48.48301, 19.51477],
                [48.46588, 19.54741],
                [48.44475, 19.57487],
                [48.43401, 19.58537],
                [48.40539, 19.59957],
                [48.36948, 19.62647],
                [48.336, 19.6675],
                [48.305378, 19.734342],
                [48.30426, 19.7417],
                [48.29701, 19.79157],
                [48.2738, 19.8274],
                [48.270497, 19.829743],
                [48.266341, 19.832382],
                [48.273225, 19.848915],
                [48.2671, 19.8774],
                [48.25055, 19.88937],
                [48.235021, 19.932182],
                [48.27714, 19.95512],
                [48.29632, 19.9798],
                [48.302618, 20.013004],
                [48.30083, 20.0275],
                [48.29954, 20.06125],
                [48.302787, 20.14237],
                [48.30513, 20.15654],
                [48.30528, 20.1956],
                [48.30719, 20.23042],
                [48.30916, 20.25673],
                [48.30518, 20.27793],
                [48.30244, 20.32943],
                [48.31737, 20.3296],
                [48.33663, 20.33453],
                [48.35494, 20.32814],
                [48.38955, 20.3267],
                [48.42268, 20.33092],
                [48.45736, 20.34642],
                [48.46173, 20.348505],
                [48.48063, 20.35977],
                [48.4942, 20.37041],
                [48.51194, 20.38037],
                [48.5359, 20.38496],
                [48.55336, 20.41277],
                [48.56194, 20.44182],
                [48.58208, 20.46776],
                [48.61172, 20.48334],
                [48.63529, 20.51402],
                [48.63523, 20.54591],
                [48.63228, 20.60299],
                [48.601161, 20.643106],
                [48.59944, 20.69061],
                [48.60678, 20.76928],
                [48.59942, 20.8327],
                [48.59826, 20.83597],
                [48.59781, 20.88973],
                [48.60672, 20.94931],
                [48.60585, 20.954],
                [48.60123, 21.00288],
                [48.59103, 21.02178],
                [48.58645, 21.06858],
                [48.58641, 21.09787],
                [48.58636, 21.11114],
                [48.59126, 21.17186],
                [48.60974, 21.20715],
                [48.63143, 21.24837],
                [48.66866, 21.274338],
                [48.67927, 21.27623],
                [48.685606, 21.273994],
                [48.7087, 21.266058],
                [48.72291, 21.26872],
                [48.75592, 21.25324],
                [48.7958, 21.24601],
                [48.83629, 21.21885],
                [48.85288, 21.22393],
                [48.8588, 21.226637],
                [48.861856, 21.238981],
                [48.870272, 21.242382],
                [48.873332, 21.241086],
                [48.90065, 21.24558],
                [48.911472, 21.245198],
                [48.92614, 21.24745],
                [48.95686, 21.24086],
                [48.983379, 21.249126]
            ]
        }],
        "Angle": 44,
        "OrderInStation": 0
    }, {
        "Nazov": "R 847 Hron",
        "Popis": "(01.02.2019 20:04) Bratislava hlavná stanica -> Banská Bystrica (01.02.2019 23:26)",
        "Meska": 3,
        "MeskaColor": "green",
        "MeskaText": "V stanici Banská Bystrica meškal 3 minúty",
        "MeskaTextColor": "#ff0000",
        "InfoZoStanice": "Banská Bystrica",
        "Cas": "01.02.2019 23:29",
        "CasPlan": "01.02.2019 23:26",
        "Dopravca": "Železničná spoločnosť Slovensko,a.s.",
        "Poznamka": "",
        "Position": [48.73475, 19.16267],
        "Trasa": [{
            "Key": "30",
            "Value": [
                [48.1589, 17.1067],
                [48.18688, 17.13305],
                [48.188507, 17.149358],
                [48.1948, 17.20669],
                [48.19483, 17.25956],
                [48.19787, 17.30602],
                [48.20606, 17.3614],
                [48.2136, 17.41412],
                [48.21933, 17.45449],
                [48.21316, 17.509201],
                [48.208132, 17.543315],
                [48.19587, 17.62928],
                [48.18509, 17.72318],
                [48.1666, 17.79515],
                [48.159945, 17.817681],
                [48.14702, 17.86232],
                [48.15306, 17.92677],
                [48.11915, 18.00698],
                [48.0926, 18.041],
                [48.06018, 18.08182],
                [48.08545, 18.17267],
                [48.09068, 18.19751],
                [48.09806, 18.23331],
                [48.0984, 18.26589],
                [48.0982, 18.30558],
                [48.10299, 18.34472],
                [48.11551, 18.38807],
                [48.13849, 18.4021],
                [48.160774, 18.418191],
                [48.16098, 18.44231],
                [48.1597, 18.44969],
                [48.1854, 18.47304],
                [48.20371, 18.51956],
                [48.21109, 18.59264],
                [48.247, 18.58209],
                [48.28074, 18.54896],
                [48.29019, 18.54093],
                [48.3108, 18.53612],
                [48.314347, 18.537863],
                [48.32941, 18.55149],
                [48.34421, 18.56132],
                [48.38256, 18.60449],
                [48.41388, 18.64856],
                [48.43512, 18.68156],
                [48.46029, 18.69161],
                [48.47495, 18.71903],
                [48.485889, 18.727975],
                [48.52944, 18.73836],
                [48.53981, 18.77129],
                [48.56857, 18.85067],
                [48.57871, 18.87078],
                [48.5793, 18.8719],
                [48.58866, 18.90735],
                [48.58722, 18.9559],
                [48.57638, 18.98978],
                [48.56971, 19.1205],
                [48.572476, 19.128892],
                [48.57723, 19.13209],
                [48.61427, 19.14943],
                [48.63109, 19.15432],
                [48.64839, 19.15913],
                [48.66943, 19.14921],
                [48.716549, 19.140841],
                [48.73156, 19.14652],
                [48.73475, 19.16267]
            ]
        }],
        "Angle": -32768,
        "OrderInStation": 0
    }, {
        "Nazov": "RJ 1020 RegioJet",
        "Popis": "(01.02.2019 21:22) Košice -> Čadca št. hr. (02.02.2019 01:14)",
        "Meska": 4,
        "MeskaColor": "green",
        "MeskaText": "V stanici Liptovský Mikuláš meškal 4 minúty",
        "MeskaTextColor": "#ff0000",
        "InfoZoStanice": "Liptovský Mikuláš",
        "Cas": "01.02.2019 23:35",
        "CasPlan": "01.02.2019 23:31",
        "Dopravca": "RegioJet, a.s.",
        "Poznamka": "",
        "Position": [49.092, 19.60618],
        "Trasa": [{
            "Key": "30",
            "Value": [
                [48.72291, 21.26872],
                [48.75592, 21.25324],
                [48.7958, 21.24601],
                [48.83629, 21.21885],
                [48.85288, 21.22393],
                [48.861694, 21.215951],
                [48.85624, 21.15561],
                [48.87403, 21.133704],
                [48.87515, 21.10961],
                [48.873402, 21.101507],
                [48.88933, 21.04195],
                [48.89469, 21.01324],
                [48.913748, 20.946724],
                [48.922767, 20.925908],
                [48.92171, 20.88621],
                [48.93557, 20.80377],
                [48.925968, 20.748389],
                [48.92556, 20.71732],
                [48.92566, 20.70039],
                [48.91706, 20.66889],
                [48.91024, 20.63426],
                [48.91872, 20.58344],
                [48.94195, 20.5797],
                [48.95041, 20.56151],
                [48.95326, 20.52336],
                [48.96482, 20.473823],
                [48.973675, 20.460614],
                [48.990581, 20.417235],
                [48.9955, 20.405],
                [49.0045, 20.3797],
                [49.02353, 20.31548],
                [49.06002, 20.29486],
                [49.0609, 20.19815],
                [49.059807, 20.141984],
                [49.062389, 20.083024],
                [49.08355, 20.06547],
                [49.074706, 20.027544],
                [49.0663, 19.9873],
                [49.050259, 19.916466],
                [49.0256, 19.78629],
                [49.03804, 19.72136],
                [49.0593, 19.6954],
                [49.0765, 19.6521],
                [49.092, 19.60618]
            ]
        }, {
            "Key": "10",
            "Value": [
                [49.092, 19.60618],
                [49.091258, 19.518573],
                [49.08784, 19.47344],
                [49.09982, 19.41664],
                [49.08709, 19.35205],
                [49.08358, 19.30903],
                [49.08607, 19.28141],
                [49.10022, 19.247],
                [49.12263, 19.19457],
                [49.12698, 19.17215],
                [49.144605, 19.172966],
                [49.152946, 19.129828],
                [49.14303, 19.09081],
                [49.12641, 19.08362],
                [49.10984, 19.03832],
                [49.103657, 18.988087],
                [49.10815, 18.95445],
                [49.11519, 18.92442],
                [49.182068, 18.869405],
                [49.20188, 18.84664],
                [49.212454, 18.804173],
                [49.217289, 18.785548],
                [49.2271, 18.74604],
                [49.233573, 18.734264],
                [49.266656, 18.75246],
                [49.28088, 18.758104],
                [49.306219, 18.784211],
                [49.347492, 18.806698],
                [49.359905, 18.818443],
                [49.378727, 18.835748],
                [49.4185, 18.8322],
                [49.43667, 18.794],
                [49.44528, 18.78681],
                [49.48197, 18.78913],
                [49.49439, 18.76439]
            ]
        }],
        "Angle": -91,
        "OrderInStation": 0
    }, {
        "Nazov": "EC 1348 LEO Express",
        "Popis": "(01.02.2019 23:11) Košice -> Prešov (01.02.2019 23:37)",
        "Meska": 1,
        "MeskaColor": "green",
        "MeskaText": "V stanici Prešov meškal 1 minútu",
        "MeskaTextColor": "#ff0000",
        "InfoZoStanice": "Prešov",
        "Cas": "01.02.2019 23:38",
        "CasPlan": "01.02.2019 23:37",
        "Dopravca": "Leo Express s.r.o.",
        "Poznamka": "",
        "Position": [48.983379, 21.249126],
        "Trasa": [{
            "Key": "30",
            "Value": [
                [48.72291, 21.26872],
                [48.75592, 21.25324],
                [48.7958, 21.24601],
                [48.83629, 21.21885],
                [48.85288, 21.22393],
                [48.8588, 21.226637],
                [48.861856, 21.238981],
                [48.870272, 21.242382],
                [48.873332, 21.241086],
                [48.90065, 21.24558],
                [48.911472, 21.245198],
                [48.92614, 21.24745],
                [48.95686, 21.24086],
                [48.983379, 21.249126]
            ]
        }],
        "Angle": -32768,
        "OrderInStation": 0
    }, {
        "Nazov": "Os 2036 ",
        "Popis": "(01.02.2019 22:16) Bratislava hlavná stanica -> Kúty (01.02.2019 23:20)",
        "Meska": 15,
        "MeskaColor": "orange",
        "MeskaText": "V stanici Kúty meškal 15 minút",
        "MeskaTextColor": "#ff0000",
        "InfoZoStanice": "Kúty",
        "Cas": "01.02.2019 23:35",
        "CasPlan": "01.02.2019 23:20",
        "Dopravca": "Železničná spoločnosť Slovensko,a.s.",
        "Poznamka": "",
        "Position": [48.66194, 17.04751],
        "Trasa": [{
            "Key": "30",
            "Value": [
                [48.1589, 17.1067],
                [48.1745, 17.0729],
                [48.18495, 17.05066],
                [48.21904, 16.97646],
                [48.25013, 16.96109],
                [48.325796, 16.991366],
                [48.3727, 17.0074],
                [48.43255, 17.02305],
                [48.50923, 17.01864],
                [48.53908, 17.00773],
                [48.552872, 17.002594],
                [48.58558, 17.00834],
                [48.60749, 17.01903],
                [48.66194, 17.04751]
            ]
        }],
        "Angle": -32768,
        "OrderInStation": 0
    }, {
        "Nazov": "Os 2038 ",
        "Popis": "(01.02.2019 23:16) Bratislava hlavná stanica -> Kúty (02.02.2019 00:26)",
        "Meska": 0,
        "MeskaColor": "green",
        "MeskaText": "V stanici Devínska Nová Ves išiel včas",
        "MeskaTextColor": "#006AA0",
        "InfoZoStanice": "Devínska Nová Ves",
        "Cas": "01.02.2019 23:33",
        "CasPlan": "01.02.2019 23:33",
        "Dopravca": "Železničná spoločnosť Slovensko,a.s.",
        "Poznamka": "",
        "Position": [48.21904, 16.97646],
        "Trasa": [{
            "Key": "30",
            "Value": [
                [48.1589, 17.1067],
                [48.1745, 17.0729],
                [48.18495, 17.05066],
                [48.21904, 16.97646]
            ]
        }, {
            "Key": "10",
            "Value": [
                [48.21904, 16.97646],
                [48.25013, 16.96109],
                [48.325796, 16.991366],
                [48.3727, 17.0074],
                [48.43255, 17.02305],
                [48.50923, 17.01864],
                [48.53908, 17.00773],
                [48.552872, 17.002594],
                [48.58558, 17.00834],
                [48.60749, 17.01903],
                [48.66194, 17.04751]
            ]
        }],
        "Angle": -27,
        "OrderInStation": 0
    }, {
        "Nazov": "REX 2536 ",
        "Popis": "(01.02.2019 23:05) Devínska Nová Ves št. hr. -> Bratislava hlavná stanica (01.02.2019 23:22)",
        "Meska": 0,
        "MeskaColor": "green",
        "MeskaText": "V stanici Bratislava hlavná stanica išiel včas",
        "MeskaTextColor": "#006AA0",
        "InfoZoStanice": "Bratislava hlavná stanica",
        "Cas": "01.02.2019 23:22",
        "CasPlan": "01.02.2019 23:22",
        "Dopravca": "Železničná spoločnosť Slovensko,a.s.",
        "Poznamka": "",
        "Position": [48.1589, 17.1067],
        "Trasa": [{
            "Key": "30",
            "Value": [
                [48.24134, 16.94675],
                [48.21904, 16.97646],
                [48.18495, 17.05066],
                [48.1745, 17.0729],
                [48.1589, 17.1067]
            ]
        }],
        "Angle": -32768,
        "OrderInStation": 1
    }, {
        "Nazov": "Os 3039 ",
        "Popis": "(01.02.2019 23:28) Bratislava hlavná stanica -> Leopoldov (02.02.2019 00:32)",
        "Meska": 1,
        "MeskaColor": "green",
        "MeskaText": "V stanici Bratislava-Rača meškal 1 minútu",
        "MeskaTextColor": "#ff0000",
        "InfoZoStanice": "Bratislava-Rača",
        "Cas": "01.02.2019 23:39",
        "CasPlan": "01.02.2019 23:38",
        "Dopravca": "Železničná spoločnosť Slovensko,a.s.",
        "Poznamka": "",
        "Position": [48.20888, 17.16075],
        "Trasa": [{
            "Key": "30",
            "Value": [
                [48.1589, 17.1067],
                [48.18688, 17.13305],
                [48.193442, 17.143779],
                [48.20888, 17.16075]
            ]
        }, {
            "Key": "10",
            "Value": [
                [48.20888, 17.16075],
                [48.24757, 17.2177],
                [48.24854, 17.21913],
                [48.26711, 17.246],
                [48.28259, 17.2707],
                [48.3019, 17.34554],
                [48.30539, 17.45008],
                [48.309103, 17.457774],
                [48.32293, 17.48665],
                [48.3626, 17.5615],
                [48.369779, 17.58482],
                [48.38156, 17.691],
                [48.44168, 17.75852]
            ]
        }],
        "Angle": 57,
        "OrderInStation": 0
    }, {
        "Nazov": "Os 3154 ",
        "Popis": "(01.02.2019 22:43) Nové Mesto nad Váhom -> Myjava (01.02.2019 23:31)",
        "Meska": 0,
        "MeskaColor": "green",
        "MeskaText": "V stanici Myjava išiel včas",
        "MeskaTextColor": "#006AA0",
        "InfoZoStanice": "Myjava",
        "Cas": "01.02.2019 23:31",
        "CasPlan": "01.02.2019 23:31",
        "Dopravca": "Železničná spoločnosť Slovensko,a.s.",
        "Poznamka": "",
        "Position": [48.7638, 17.57087],
        "Trasa": [{
            "Key": "30",
            "Value": [
                [48.75144, 17.83592],
                [48.740187, 17.825747],
                [48.72163, 17.79875],
                [48.72519, 17.75235],
                [48.71812, 17.72704],
                [48.73112, 17.72465],
                [48.77316, 17.70037],
                [48.7806, 17.64385],
                [48.77622, 17.61563],
                [48.7638, 17.57087]
            ]
        }],
        "Angle": -32768,
        "OrderInStation": 0
    }, {
        "Nazov": "Os 3356 ",
        "Popis": "(01.02.2019 22:41) Žilina -> Púchov (01.02.2019 23:36)",
        "Meska": 11,
        "MeskaColor": "orange",
        "MeskaText": "V stanici Považská Bystrica meškal 11 minút",
        "MeskaTextColor": "#ff0000",
        "InfoZoStanice": "Považská Bystrica",
        "Cas": "01.02.2019 23:31",
        "CasPlan": "01.02.2019 23:20",
        "Dopravca": "Železničná spoločnosť Slovensko,a.s.",
        "Poznamka": "",
        "Position": [49.12262, 18.43227],
        "Trasa": [{
            "Key": "30",
            "Value": [
                [49.2271, 18.74604],
                [49.231261, 18.72876],
                [49.2545, 18.65888],
                [49.24083, 18.643363],
                [49.20764, 18.55325],
                [49.1975, 18.5356],
                [49.177235, 18.500066],
                [49.1713, 18.491],
                [49.1684, 18.4874],
                [49.13989, 18.46806],
                [49.12262, 18.43227]
            ]
        }, {
            "Key": "10",
            "Value": [
                [49.12262, 18.43227],
                [49.1349, 18.3833],
                [49.1291, 18.355],
                [49.122705, 18.334038],
                [49.11377, 18.32717]
            ]
        }],
        "Angle": -76,
        "OrderInStation": 0
    }, {
        "Nazov": "Os 3357 ",
        "Popis": "(01.02.2019 22:33) Púchov závody -> Žilina (01.02.2019 23:31)",
        "Meska": 1,
        "MeskaColor": "green",
        "MeskaText": "V stanici Žilina meškal 1 minútu",
        "MeskaTextColor": "#ff0000",
        "InfoZoStanice": "Žilina",
        "Cas": "01.02.2019 23:32",
        "CasPlan": "01.02.2019 23:31",
        "Dopravca": "Železničná spoločnosť Slovensko,a.s.",
        "Poznamka": "",
        "Position": [49.2271, 18.74604],
        "Trasa": [{
            "Key": "30",
            "Value": [
                [49.10751, 18.31691],
                [49.107455, 18.323971],
                [49.11377, 18.32717],
                [49.122705, 18.334038],
                [49.1291, 18.355],
                [49.1349, 18.3833],
                [49.12262, 18.43227],
                [49.13989, 18.46806],
                [49.1684, 18.4874],
                [49.1713, 18.491],
                [49.177235, 18.500066],
                [49.1975, 18.5356],
                [49.20764, 18.55325],
                [49.24083, 18.643363],
                [49.2545, 18.65888],
                [49.231261, 18.72876],
                [49.2271, 18.74604]
            ]
        }],
        "Angle": -32768,
        "OrderInStation": 0
    }, {
        "Nazov": "Os 3437 ",
        "Popis": "(01.02.2019 21:57) Žilina -> Liptovský Mikuláš (01.02.2019 23:33)",
        "Meska": -1,
        "MeskaColor": "green",
        "MeskaText": "V stanici Liptovský Mikuláš mal náskok 1 minút",
        "MeskaTextColor": "#006AA0",
        "InfoZoStanice": "Liptovský Mikuláš",
        "Cas": "01.02.2019 23:32",
        "CasPlan": "01.02.2019 23:33",
        "Dopravca": "Železničná spoločnosť Slovensko,a.s.",
        "Poznamka": "",
        "Position": [49.092, 19.60618],
        "Trasa": [{
            "Key": "30",
            "Value": [
                [49.2271, 18.74604],
                [49.217289, 18.785548],
                [49.212454, 18.804173],
                [49.20188, 18.84664],
                [49.182068, 18.869405],
                [49.11519, 18.92442],
                [49.10815, 18.95445],
                [49.103657, 18.988087],
                [49.10984, 19.03832],
                [49.12641, 19.08362],
                [49.14303, 19.09081],
                [49.152946, 19.129828],
                [49.144605, 19.172966],
                [49.12698, 19.17215],
                [49.12263, 19.19457],
                [49.10022, 19.247],
                [49.08607, 19.28141],
                [49.08358, 19.30903],
                [49.08709, 19.35205],
                [49.09051, 19.36645],
                [49.09982, 19.41664],
                [49.08784, 19.47344],
                [49.091258, 19.518573],
                [49.092, 19.60618]
            ]
        }],
        "Angle": -32768,
        "OrderInStation": 1
    }, {
        "Nazov": "Os 3478 ",
        "Popis": "(01.02.2019 22:47) Poprad-Tatry -> Liptovský Mikuláš (01.02.2019 23:53)",
        "Meska": 2,
        "MeskaColor": "green",
        "MeskaText": "V stanici Kráľova Lehota meškal 2 minúty",
        "MeskaTextColor": "#ff0000",
        "InfoZoStanice": "Kráľova Lehota",
        "Cas": "01.02.2019 23:38",
        "CasPlan": "01.02.2019 23:36",
        "Dopravca": "Železničná spoločnosť Slovensko,a.s.",
        "Poznamka": "",
        "Position": [49.0256, 19.78629],
        "Trasa": [{
            "Key": "30",
            "Value": [
                [49.06002, 20.29486],
                [49.0609, 20.19815],
                [49.059807, 20.141984],
                [49.062389, 20.083024],
                [49.08355, 20.06547],
                [49.074706, 20.027544],
                [49.0663, 19.9873],
                [49.050259, 19.916466],
                [49.0256, 19.78629]
            ]
        }, {
            "Key": "10",
            "Value": [
                [49.0256, 19.78629],
                [49.03804, 19.72136],
                [49.0593, 19.6954],
                [49.0765, 19.6521],
                [49.092, 19.60618]
            ]
        }],
        "Angle": -79,
        "OrderInStation": 0
    }, {
        "Nazov": "Os 3479 ",
        "Popis": "(01.02.2019 22:20) Liptovský Mikuláš -> Poprad-Tatry (01.02.2019 23:40)",
        "Meska": -1,
        "MeskaColor": "green",
        "MeskaText": "V stanici Poprad-Tatry mal náskok 1 minút",
        "MeskaTextColor": "#006AA0",
        "InfoZoStanice": "Poprad-Tatry",
        "Cas": "01.02.2019 23:39",
        "CasPlan": "01.02.2019 23:40",
        "Dopravca": "Železničná spoločnosť Slovensko,a.s.",
        "Poznamka": "",
        "Position": [49.06002, 20.29486],
        "Trasa": [{
            "Key": "30",
            "Value": [
                [49.092, 19.60618],
                [49.0765, 19.6521],
                [49.0593, 19.6954],
                [49.03804, 19.72136],
                [49.0256, 19.78629],
                [49.050259, 19.916466],
                [49.0663, 19.9873],
                [49.074706, 20.027544],
                [49.08355, 20.06547],
                [49.062389, 20.083024],
                [49.059807, 20.141984],
                [49.0609, 20.19815],
                [49.06002, 20.29486]
            ]
        }],
        "Angle": -32768,
        "OrderInStation": 0
    }, {
        "Nazov": "Os 4038 ",
        "Popis": "(01.02.2019 23:32) Čadca -> Makov (02.02.2019 00:18)",
        "Meska": 0,
        "MeskaColor": "green",
        "MeskaText": "V stanici Čadca išiel včas",
        "MeskaTextColor": "#006AA0",
        "InfoZoStanice": "Čadca",
        "Cas": "01.02.2019 23:32",
        "CasPlan": "01.02.2019 23:32",
        "Dopravca": "Železničná spoločnosť Slovensko,a.s.",
        "Poznamka": "",
        "Position": [49.44528, 18.78681],
        "Trasa": [{
            "Key": "10",
            "Value": [
                [49.44528, 18.78681],
                [49.43921, 18.77926],
                [49.443296, 18.751581],
                [49.44697, 18.73712],
                [49.432664, 18.70682],
                [49.423532, 18.690178],
                [49.413666, 18.671231],
                [49.4036, 18.6284],
                [49.382401, 18.593738],
                [49.379546, 18.549024],
                [49.376929, 18.507067],
                [49.37213, 18.48439]
            ]
        }],
        "Angle": -127,
        "OrderInStation": 0
    }, {
        "Nazov": "Os 4353 ",
        "Popis": "(01.02.2019 22:05) Bratislava hlavná stanica -> Komárno (02.02.2019 00:13)",
        "Meska": 0,
        "MeskaColor": "green",
        "MeskaText": "V stanici Veľký Meder išiel včas",
        "MeskaTextColor": "#006AA0",
        "InfoZoStanice": "Veľký Meder",
        "Cas": "01.02.2019 23:38",
        "CasPlan": "01.02.2019 23:38",
        "Dopravca": "RegioJet, a.s.",
        "Poznamka": "",
        "Position": [47.8615, 17.78168],
        "Trasa": [{
            "Key": "30",
            "Value": [
                [48.1589, 17.1067],
                [48.171969, 17.14668],
                [48.156582, 17.191908],
                [48.142112, 17.214998],
                [48.131326, 17.220741],
                [48.10809, 17.25502],
                [48.09995, 17.27674],
                [48.08558, 17.30164],
                [48.06771, 17.32204],
                [48.060256, 17.341254],
                [48.05565, 17.35944],
                [48.04389, 17.38814],
                [48.03855, 17.40359],
                [48.03178, 17.452102],
                [48.01818, 17.505306],
                [48.014574, 17.529968],
                [48.00652, 17.57559],
                [47.99335, 17.607965],
                [47.98476, 17.64669],
                [47.967395, 17.69339],
                [47.95167, 17.74245],
                [47.8961, 17.7948],
                [47.8615, 17.78168]
            ]
        }, {
            "Key": "10",
            "Value": [
                [47.8615, 17.78168],
                [47.851594, 17.79522],
                [47.83366, 17.82167],
                [47.80802, 17.8518],
                [47.793198, 17.9003],
                [47.78043, 17.94693],
                [47.77508, 17.97688],
                [47.7644, 18.0486],
                [47.77256, 18.094311],
                [47.772762, 18.09695],
                [47.7693, 18.1259]
            ]
        }],
        "Angle": 123,
        "OrderInStation": 0
    }, {
        "Nazov": "Os 4355 ",
        "Popis": "(01.02.2019 23:05) Bratislava hlavná stanica -> Dunajská Streda (02.02.2019 00:07)",
        "Meska": 1,
        "MeskaColor": "green",
        "MeskaText": "V stanici Kvetoslavov meškal 1 minútu",
        "MeskaTextColor": "#ff0000",
        "InfoZoStanice": "Kvetoslavov",
        "Cas": "01.02.2019 23:40",
        "CasPlan": "01.02.2019 23:39",
        "Dopravca": "RegioJet, a.s.",
        "Poznamka": "",
        "Position": [48.05565, 17.35944],
        "Trasa": [{
            "Key": "30",
            "Value": [
                [48.1589, 17.1067],
                [48.171969, 17.14668],
                [48.156582, 17.191908],
                [48.142112, 17.214998],
                [48.131326, 17.220741],
                [48.10809, 17.25502],
                [48.09995, 17.27674],
                [48.08558, 17.30164],
                [48.06771, 17.32204],
                [48.060256, 17.341254],
                [48.05565, 17.35944]
            ]
        }, {
            "Key": "10",
            "Value": [
                [48.05565, 17.35944],
                [48.04389, 17.38814],
                [48.03855, 17.40359],
                [48.03178, 17.452102],
                [48.01818, 17.505306],
                [48.014574, 17.529968],
                [48.00652, 17.57559],
                [47.99335, 17.607965]
            ]
        }],
        "Angle": 111,
        "OrderInStation": 0
    }, {
        "Nazov": "Os 4478 ",
        "Popis": "(01.02.2019 22:48) Žilina -> Skalité št. hr. (01.02.2019 23:58)",
        "Meska": 1,
        "MeskaColor": "green",
        "MeskaText": "V stanici Čierne pri Čadci meškal 1 minútu",
        "MeskaTextColor": "#ff0000",
        "InfoZoStanice": "Čierne pri Čadci",
        "Cas": "01.02.2019 23:37",
        "CasPlan": "01.02.2019 23:36",
        "Dopravca": "Železničná spoločnosť Slovensko,a.s.",
        "Poznamka": "",
        "Position": [49.49542, 18.81958],
        "Trasa": [{
            "Key": "30",
            "Value": [
                [49.2271, 18.74604],
                [49.233573, 18.734264],
                [49.266656, 18.75246],
                [49.28088, 18.758104],
                [49.306219, 18.784211],
                [49.347492, 18.806698],
                [49.359905, 18.818443],
                [49.378727, 18.835748],
                [49.4185, 18.8322],
                [49.43667, 18.794],
                [49.44528, 18.78681],
                [49.48038, 18.79312],
                [49.49542, 18.81958]
            ]
        }, {
            "Key": "10",
            "Value": [
                [49.49542, 18.81958],
                [49.50975, 18.84567],
                [49.51178, 18.85966],
                [49.50555, 18.87181],
                [49.49823, 18.89174],
                [49.49584, 18.91599],
                [49.49884, 18.93569],
                [49.50161, 18.96471],
                [49.50388, 18.97193]
            ]
        }],
        "Angle": 62,
        "OrderInStation": 0
    }, {
        "Nazov": "Os 4639 ",
        "Popis": "(01.02.2019 23:09) Bratislava hlavná stanica -> Nové Zámky (02.02.2019 00:35)",
        "Meska": 3,
        "MeskaColor": "green",
        "MeskaText": "V stanici Senec meškal 3 minúty",
        "MeskaTextColor": "#ff0000",
        "InfoZoStanice": "Senec",
        "Cas": "01.02.2019 23:39",
        "CasPlan": "01.02.2019 23:36",
        "Dopravca": "Železničná spoločnosť Slovensko,a.s.",
        "Poznamka": "",
        "Position": [48.2136, 17.41412],
        "Trasa": [{
            "Key": "30",
            "Value": [
                [48.1589, 17.1067],
                [48.18688, 17.13305],
                [48.188507, 17.149358],
                [48.1948, 17.20669],
                [48.19483, 17.25956],
                [48.19787, 17.30602],
                [48.20606, 17.3614],
                [48.2136, 17.41412]
            ]
        }, {
            "Key": "10",
            "Value": [
                [48.2136, 17.41412],
                [48.21933, 17.45449],
                [48.21316, 17.509201],
                [48.208132, 17.543315],
                [48.19587, 17.62928],
                [48.18509, 17.72318],
                [48.1666, 17.79515],
                [48.159945, 17.817681],
                [48.14702, 17.86232],
                [48.15306, 17.92677],
                [48.11915, 18.00698],
                [48.0926, 18.041],
                [48.06018, 18.08182],
                [48.03501, 18.11389],
                [47.99509, 18.17413]
            ]
        }],
        "Angle": 82,
        "OrderInStation": 0
    }, {
        "Nazov": "Os 4939 ",
        "Popis": "(01.02.2019 21:09) Bratislava hlavná stanica -> Štúrovo (01.02.2019 23:41)",
        "Meska": 0,
        "MeskaColor": "green",
        "MeskaText": "V stanici Štúrovo tranzitná skupina išiel včas",
        "MeskaTextColor": "#006AA0",
        "InfoZoStanice": "Štúrovo tranzitná skupina",
        "Cas": "01.02.2019 23:38",
        "CasPlan": "01.02.2019 23:38",
        "Dopravca": "Železničná spoločnosť Slovensko,a.s.",
        "Poznamka": "",
        "Position": [47.79857, 18.663819],
        "Trasa": [{
            "Key": "30",
            "Value": [
                [48.1589, 17.1067],
                [48.18688, 17.13305],
                [48.188507, 17.149358],
                [48.1948, 17.20669],
                [48.19483, 17.25956],
                [48.19787, 17.30602],
                [48.20606, 17.3614],
                [48.2136, 17.41412],
                [48.21933, 17.45449],
                [48.21316, 17.509201],
                [48.208132, 17.543315],
                [48.19587, 17.62928],
                [48.18509, 17.72318],
                [48.1666, 17.79515],
                [48.159945, 17.817681],
                [48.14702, 17.86232],
                [48.15306, 17.92677],
                [48.11915, 18.00698],
                [48.0926, 18.041],
                [48.06018, 18.08182],
                [48.03501, 18.11389],
                [47.99509, 18.17413],
                [47.96786, 18.25121],
                [47.938312, 18.316183],
                [47.90012, 18.39927],
                [47.86889, 18.46064],
                [47.84974, 18.50647],
                [47.812708, 18.596895],
                [47.79857, 18.663819]
            ]
        }, {
            "Key": "10",
            "Value": [
                [47.79857, 18.663819],
                [47.80021, 18.67968]
            ]
        }],
        "Angle": 84,
        "OrderInStation": 0
    }, {
        "Nazov": "Os 5038 ",
        "Popis": "(01.02.2019 22:55) Nitra -> Nové Zámky (01.02.2019 23:44)",
        "Meska": 2,
        "MeskaColor": "green",
        "MeskaText": "V stanici Šurany meškal 2 minúty",
        "MeskaTextColor": "#ff0000",
        "InfoZoStanice": "Šurany",
        "Cas": "01.02.2019 23:34",
        "CasPlan": "01.02.2019 23:32",
        "Dopravca": "Železničná spoločnosť Slovensko,a.s.",
        "Poznamka": "",
        "Position": [48.08545, 18.17267],
        "Trasa": [{
            "Key": "30",
            "Value": [
                [48.3015, 18.07925],
                [48.274478, 18.091607],
                [48.271131, 18.093211],
                [48.24432, 18.10959],
                [48.20726, 18.1372],
                [48.18339, 18.1507],
                [48.15174, 18.16386],
                [48.121567, 18.165199],
                [48.08545, 18.17267]
            ]
        }, {
            "Key": "10",
            "Value": [
                [48.08545, 18.17267],
                [48.045443, 18.1675],
                [47.99509, 18.17413]
            ]
        }],
        "Angle": -172,
        "OrderInStation": 0
    }, {
        "Nazov": "Os 5039 ",
        "Popis": "(01.02.2019 22:59) Nové Zámky -> Nitra (01.02.2019 23:43)",
        "Meska": 1,
        "MeskaColor": "green",
        "MeskaText": "V stanici Ivanka pri Nitre meškal 1 minútu",
        "MeskaTextColor": "#ff0000",
        "InfoZoStanice": "Ivanka pri Nitre",
        "Cas": "01.02.2019 23:35",
        "CasPlan": "01.02.2019 23:34",
        "Dopravca": "Železničná spoločnosť Slovensko,a.s.",
        "Poznamka": "",
        "Position": [48.24432, 18.10959],
        "Trasa": [{
            "Key": "30",
            "Value": [
                [47.99509, 18.17413],
                [48.045443, 18.1675],
                [48.08545, 18.17267],
                [48.121567, 18.165199],
                [48.15174, 18.16386],
                [48.18339, 18.1507],
                [48.20726, 18.1372],
                [48.24432, 18.10959]
            ]
        }, {
            "Key": "10",
            "Value": [
                [48.24432, 18.10959],
                [48.271131, 18.093211],
                [48.274478, 18.091607],
                [48.3015, 18.07925]
            ]
        }],
        "Angle": -32,
        "OrderInStation": 0
    }, {
        "Nazov": "Os 5079 ",
        "Popis": "(01.02.2019 22:40) Nitra -> Topoľčany (01.02.2019 23:29)",
        "Meska": 0,
        "MeskaColor": "green",
        "MeskaText": "V stanici Topoľčany išiel včas",
        "MeskaTextColor": "#006AA0",
        "InfoZoStanice": "Topoľčany",
        "Cas": "01.02.2019 23:29",
        "CasPlan": "01.02.2019 23:29",
        "Dopravca": "Železničná spoločnosť Slovensko,a.s.",
        "Poznamka": "",
        "Position": [48.56238, 18.16916],
        "Trasa": [{
            "Key": "30",
            "Value": [
                [48.3015, 18.07925],
                [48.311829, 18.056717],
                [48.32524, 18.03983],
                [48.35184, 18.02384],
                [48.372515, 18.036118],
                [48.3837, 18.05274],
                [48.4121, 18.0795],
                [48.42993, 18.09046],
                [48.44844, 18.0934],
                [48.46643, 18.09531],
                [48.484201, 18.103452],
                [48.504293, 18.11878],
                [48.53164, 18.14787],
                [48.56238, 18.16916]
            ]
        }],
        "Angle": -32768,
        "OrderInStation": 0
    }, {
        "Nazov": "Os 5537 ",
        "Popis": "(01.02.2019 22:23) Topoľčany -> Prievidza (01.02.2019 23:26)",
        "Meska": 0,
        "MeskaColor": "green",
        "MeskaText": "V stanici Prievidza išiel včas",
        "MeskaTextColor": "#006AA0",
        "InfoZoStanice": "Prievidza",
        "Cas": "01.02.2019 23:26",
        "CasPlan": "01.02.2019 23:26",
        "Dopravca": "Železničná spoločnosť Slovensko,a.s.",
        "Poznamka": "",
        "Position": [48.77477, 18.61659],
        "Trasa": [{
            "Key": "30",
            "Value": [
                [48.56238, 18.16916],
                [48.582715, 18.201796],
                [48.582798, 18.223548],
                [48.592997, 18.2419],
                [48.608028, 18.275052],
                [48.61756, 18.29945],
                [48.624645, 18.349656],
                [48.62741, 18.37056],
                [48.627179, 18.393559],
                [48.625561, 18.425232],
                [48.641497, 18.46462],
                [48.658867, 18.48969],
                [48.68445, 18.51923],
                [48.71838, 18.53625],
                [48.748781, 18.57421],
                [48.76507, 18.60462],
                [48.77477, 18.61659]
            ]
        }],
        "Angle": -32768,
        "OrderInStation": 0
    }, {
        "Nazov": "Os 5538 ",
        "Popis": "(01.02.2019 22:31) Prievidza -> Topoľčany (01.02.2019 23:39)",
        "Meska": 0,
        "MeskaColor": "green",
        "MeskaText": "V stanici Bošany išiel včas",
        "MeskaTextColor": "#006AA0",
        "InfoZoStanice": "Bošany",
        "Cas": "01.02.2019 23:30",
        "CasPlan": "01.02.2019 23:30",
        "Dopravca": "Železničná spoločnosť Slovensko,a.s.",
        "Poznamka": "",
        "Position": [48.592997, 18.2419],
        "Trasa": [{
            "Key": "30",
            "Value": [
                [48.77477, 18.61659],
                [48.76507, 18.60462],
                [48.748781, 18.57421],
                [48.71838, 18.53625],
                [48.68445, 18.51923],
                [48.658867, 18.48969],
                [48.641497, 18.46462],
                [48.625561, 18.425232],
                [48.627179, 18.393559],
                [48.62741, 18.37056],
                [48.624645, 18.349656],
                [48.61756, 18.29945],
                [48.608028, 18.275052],
                [48.592997, 18.2419]
            ]
        }, {
            "Key": "10",
            "Value": [
                [48.592997, 18.2419],
                [48.582798, 18.223548],
                [48.582715, 18.201796],
                [48.56238, 18.16916]
            ]
        }],
        "Angle": -103,
        "OrderInStation": 0
    }, {
        "Nazov": "Os 6236 ",
        "Popis": "(01.02.2019 22:36) Lučenec -> Zvolen osobná stanica (01.02.2019 23:44)",
        "Meska": 2,
        "MeskaColor": "green",
        "MeskaText": "V stanici Výh. Slatinka meškal 2 minúty",
        "MeskaTextColor": "#ff0000",
        "InfoZoStanice": "Výh. Slatinka",
        "Cas": "01.02.2019 23:37",
        "CasPlan": "01.02.2019 23:35",
        "Dopravca": "Železničná spoločnosť Slovensko,a.s.",
        "Poznamka": "",
        "Position": [48.56079, 19.23183],
        "Trasa": [{
            "Key": "30",
            "Value": [
                [48.336, 19.6675],
                [48.36948, 19.62647],
                [48.40539, 19.59957],
                [48.43401, 19.58537],
                [48.44475, 19.57487],
                [48.46588, 19.54741],
                [48.48301, 19.51477],
                [48.51636, 19.46699],
                [48.52854, 19.44571],
                [48.53382, 19.40588],
                [48.53824, 19.35793],
                [48.55336, 19.31244],
                [48.55407, 19.28319],
                [48.55889, 19.26077],
                [48.56079, 19.23183]
            ]
        }, {
            "Key": "10",
            "Value": [
                [48.56079, 19.23183],
                [48.572036, 19.177365],
                [48.5721, 19.1627],
                [48.5728, 19.14299],
                [48.56971, 19.1205]
            ]
        }],
        "Angle": -81,
        "OrderInStation": 0
    }, {
        "Nazov": "Os 6237 ",
        "Popis": "(01.02.2019 22:32) Zvolen osobná stanica -> Fiľakovo (01.02.2019 23:57)",
        "Meska": 0,
        "MeskaColor": "green",
        "MeskaText": "V stanici Lučenec išiel včas",
        "MeskaTextColor": "#006AA0",
        "InfoZoStanice": "Lučenec",
        "Cas": "01.02.2019 23:38",
        "CasPlan": "01.02.2019 23:38",
        "Dopravca": "Železničná spoločnosť Slovensko,a.s.",
        "Poznamka": "",
        "Position": [48.336, 19.6675],
        "Trasa": [{
            "Key": "30",
            "Value": [
                [48.56971, 19.1205],
                [48.5728, 19.14299],
                [48.5721, 19.1627],
                [48.572036, 19.177365],
                [48.56079, 19.23183],
                [48.55889, 19.26077],
                [48.55407, 19.28319],
                [48.55336, 19.31244],
                [48.53824, 19.35793],
                [48.53382, 19.40588],
                [48.52854, 19.44571],
                [48.51636, 19.46699],
                [48.48301, 19.51477],
                [48.46588, 19.54741],
                [48.44475, 19.57487],
                [48.43401, 19.58537],
                [48.40539, 19.59957],
                [48.36948, 19.62647],
                [48.336, 19.6675]
            ]
        }, {
            "Key": "10",
            "Value": [
                [48.336, 19.6675],
                [48.305378, 19.734342],
                [48.30426, 19.7417],
                [48.29701, 19.79157],
                [48.2738, 19.8274],
                [48.270497, 19.829743],
                [48.266341, 19.832382]
            ]
        }],
        "Angle": 111,
        "OrderInStation": 0
    }, {
        "Nazov": "Os 7227 ",
        "Popis": "(01.02.2019 22:30) Banská Bystrica -> Brezno (01.02.2019 23:29)",
        "Meska": 0,
        "MeskaColor": "green",
        "MeskaText": "V stanici Brezno išiel včas",
        "MeskaTextColor": "#006AA0",
        "InfoZoStanice": "Brezno",
        "Cas": "01.02.2019 23:29",
        "CasPlan": "01.02.2019 23:29",
        "Dopravca": "Železničná spoločnosť Slovensko,a.s.",
        "Poznamka": "",
        "Position": [48.80148, 19.62889],
        "Trasa": [{
            "Key": "30",
            "Value": [
                [48.73475, 19.16267],
                [48.74136, 19.21882],
                [48.74645, 19.2374],
                [48.76295, 19.27652],
                [48.78155, 19.31423],
                [48.79131, 19.3575],
                [48.79175, 19.38627],
                [48.8088, 19.41],
                [48.81095, 19.4169],
                [48.813632, 19.439342],
                [48.80698, 19.46532],
                [48.81547, 19.49826],
                [48.810184, 19.522598],
                [48.80363, 19.55942],
                [48.81219, 19.57534],
                [48.80148, 19.62889]
            ]
        }],
        "Angle": -32768,
        "OrderInStation": 0
    }, {
        "Nazov": "Os 7436 ",
        "Popis": "(01.02.2019 22:40) Margecany -> Nálepkovo (01.02.2019 23:33)",
        "Meska": 0,
        "MeskaColor": "green",
        "MeskaText": "V stanici Nálepkovo išiel včas",
        "MeskaTextColor": "#006AA0",
        "InfoZoStanice": "Nálepkovo",
        "Cas": "01.02.2019 23:33",
        "CasPlan": "01.02.2019 23:33",
        "Dopravca": "Železničná spoločnosť Slovensko,a.s.",
        "Poznamka": "",
        "Position": [48.83833, 20.63011],
        "Trasa": [{
            "Key": "30",
            "Value": [
                [48.89469, 21.01324],
                [48.87723, 20.99044],
                [48.87395, 20.97968],
                [48.869357, 20.963963],
                [48.85834, 20.94725],
                [48.850638, 20.935065],
                [48.842836, 20.92082],
                [48.82228, 20.9193],
                [48.82017, 20.88565],
                [48.82771, 20.86526],
                [48.81167, 20.81501],
                [48.79366, 20.75785],
                [48.8055, 20.72323],
                [48.81189, 20.67144],
                [48.83833, 20.63011]
            ]
        }],
        "Angle": -32768,
        "OrderInStation": 0
    }, {
        "Nazov": "Os 7851 ",
        "Popis": "(01.02.2019 22:27) Svit -> Margecany (01.02.2019 23:59)",
        "Meska": 0,
        "MeskaColor": "green",
        "MeskaText": "V stanici Markušovce išiel včas",
        "MeskaTextColor": "#006AA0",
        "InfoZoStanice": "Markušovce",
        "Cas": "01.02.2019 23:25",
        "CasPlan": "01.02.2019 23:25",
        "Dopravca": "Železničná spoločnosť Slovensko,a.s.",
        "Poznamka": "",
        "Position": [48.91024, 20.63426],
        "Trasa": [{
            "Key": "30",
            "Value": [
                [49.0609, 20.19815],
                [49.06002, 20.29486],
                [49.02353, 20.31548],
                [49.0045, 20.3797],
                [48.9955, 20.405],
                [48.990581, 20.417235],
                [48.973675, 20.460614],
                [48.96482, 20.473823],
                [48.95326, 20.52336],
                [48.95041, 20.56151],
                [48.94195, 20.5797],
                [48.91872, 20.58344],
                [48.91024, 20.63426]
            ]
        }, {
            "Key": "10",
            "Value": [
                [48.91024, 20.63426],
                [48.91706, 20.66889],
                [48.92566, 20.70039],
                [48.92556, 20.71732],
                [48.925968, 20.748389],
                [48.93557, 20.80377],
                [48.92171, 20.88621],
                [48.922767, 20.925908],
                [48.913748, 20.946724],
                [48.89469, 21.01324]
            ]
        }],
        "Angle": 79,
        "OrderInStation": 0
    }, {
        "Nazov": "Os 7937 ",
        "Popis": "(01.02.2019 21:43) Kraľovany -> Trstená (01.02.2019 23:31)",
        "Meska": 0,
        "MeskaColor": "green",
        "MeskaText": "V stanici Trstená išiel včas",
        "MeskaTextColor": "#006AA0",
        "InfoZoStanice": "Trstená",
        "Cas": "01.02.2019 23:31",
        "CasPlan": "01.02.2019 23:31",
        "Dopravca": "Železničná spoločnosť Slovensko,a.s.",
        "Poznamka": "",
        "Position": [49.360966, 19.619316],
        "Trasa": [{
            "Key": "30",
            "Value": [
                [49.152946, 19.129828],
                [49.17898, 19.14654],
                [49.19283, 19.19653],
                [49.20133, 19.22749],
                [49.20249, 19.25359],
                [49.21183, 19.27946],
                [49.21684, 19.296906],
                [49.2354, 19.3088],
                [49.2294, 19.32],
                [49.233999, 19.34569],
                [49.26111, 19.363774],
                [49.26274, 19.37761],
                [49.25184, 19.3995],
                [49.25845, 19.43181],
                [49.26478, 19.44747],
                [49.28813, 19.47541],
                [49.30393, 19.47844],
                [49.31024, 19.5285],
                [49.321402, 19.545085],
                [49.33709, 19.5627],
                [49.352477, 19.585394],
                [49.360966, 19.619316]
            ]
        }],
        "Angle": -32768,
        "OrderInStation": 0
    }, {
        "Nazov": "Os 8137 ",
        "Popis": "(01.02.2019 22:17) Štrbské Pleso -> Poprad-Tatry TEŽ (01.02.2019 23:33)",
        "Meska": 0,
        "MeskaColor": "green",
        "MeskaText": "V stanici Poprad-Tatry TEŽ išiel včas",
        "MeskaTextColor": "#006AA0",
        "InfoZoStanice": "Poprad-Tatry TEŽ",
        "Cas": "01.02.2019 23:33",
        "CasPlan": "01.02.2019 23:33",
        "Dopravca": "Železničná spoločnosť Slovensko,a.s.",
        "Poznamka": "",
        "Position": [49.06094, 20.29536],
        "Trasa": [{
            "Key": "30",
            "Value": [
                [49.11862, 20.064034],
                [49.126024, 20.074886],
                [49.118947, 20.123146],
                [49.11838, 20.15056],
                [49.116958, 20.166305],
                [49.12256, 20.18579],
                [49.130229, 20.19948],
                [49.13468, 20.210402],
                [49.136954, 20.216045],
                [49.139298, 20.222847],
                [49.132079, 20.239761],
                [49.125792, 20.245357],
                [49.116018, 20.261922],
                [49.09166, 20.27651],
                [49.06094, 20.29536]
            ]
        }],
        "Angle": -32768,
        "OrderInStation": 0
    }, {
        "Nazov": "Os 8138 ",
        "Popis": "(01.02.2019 22:44) Poprad-Tatry TEŽ -> Štrbské Pleso (01.02.2019 23:47)",
        "Meska": 0,
        "MeskaColor": "green",
        "MeskaText": "V stanici Tatranská Polianka išiel včas",
        "MeskaTextColor": "#006AA0",
        "InfoZoStanice": "Tatranská Polianka",
        "Cas": "01.02.2019 23:19",
        "CasPlan": "01.02.2019 23:19",
        "Dopravca": "Železničná spoločnosť Slovensko,a.s.",
        "Poznamka": "",
        "Position": [49.12256, 20.18579],
        "Trasa": [{
            "Key": "30",
            "Value": [
                [49.06094, 20.29536],
                [49.09166, 20.27651],
                [49.116018, 20.261922],
                [49.125792, 20.245357],
                [49.132079, 20.239761],
                [49.139298, 20.222847],
                [49.136954, 20.216045],
                [49.13468, 20.210402],
                [49.130229, 20.19948],
                [49.12256, 20.18579]
            ]
        }, {
            "Key": "10",
            "Value": [
                [49.12256, 20.18579],
                [49.116958, 20.166305],
                [49.11838, 20.15056],
                [49.118947, 20.123146],
                [49.126024, 20.074886],
                [49.11862, 20.064034]
            ]
        }],
        "Angle": -105,
        "OrderInStation": 0
    }, {
        "Nazov": "Os 8586 ",
        "Popis": "(01.02.2019 22:29) Košice -> Lipany (01.02.2019 23:55)",
        "Meska": 2,
        "MeskaColor": "green",
        "MeskaText": "V stanici Veľký Šariš meškal 2 minúty",
        "MeskaTextColor": "#ff0000",
        "InfoZoStanice": "Veľký Šariš",
        "Cas": "01.02.2019 23:31",
        "CasPlan": "01.02.2019 23:29",
        "Dopravca": "Železničná spoločnosť Slovensko,a.s.",
        "Poznamka": "",
        "Position": [49.04477, 21.20295],
        "Trasa": [{
            "Key": "30",
            "Value": [
                [48.72291, 21.26872],
                [48.75592, 21.25324],
                [48.7958, 21.24601],
                [48.83629, 21.21885],
                [48.85288, 21.22393],
                [48.8588, 21.226637],
                [48.861856, 21.238981],
                [48.870272, 21.242382],
                [48.873332, 21.241086],
                [48.90065, 21.24558],
                [48.911472, 21.245198],
                [48.92614, 21.24745],
                [48.95686, 21.24086],
                [48.983379, 21.249126],
                [48.9947, 21.2336],
                [48.9956, 21.233],
                [49.04477, 21.20295]
            ]
        }, {
            "Key": "10",
            "Value": [
                [49.04477, 21.20295],
                [49.06529, 21.13993],
                [49.0651, 21.1375],
                [49.087221, 21.109484],
                [49.10324, 21.0886],
                [49.12068, 21.04053],
                [49.1328, 21.0244],
                [49.143217, 20.993266],
                [49.15203, 20.95992]
            ]
        }],
        "Angle": -73,
        "OrderInStation": 0
    }, {
        "Nazov": "Os 8873 ",
        "Popis": "(01.02.2019 23:18) Košice -> Čierna nad Tisou (02.02.2019 00:59)",
        "Meska": 2,
        "MeskaColor": "green",
        "MeskaText": "V stanici Nižná Myšľa meškal 2 minúty",
        "MeskaTextColor": "#ff0000",
        "InfoZoStanice": "Nižná Myšľa",
        "Cas": "01.02.2019 23:36",
        "CasPlan": "01.02.2019 23:34",
        "Dopravca": "Železničná spoločnosť Slovensko,a.s.",
        "Poznamka": "",
        "Position": [48.62929, 21.37178],
        "Trasa": [{
            "Key": "30",
            "Value": [
                [48.72291, 21.26872],
                [48.7087, 21.266058],
                [48.685606, 21.273994],
                [48.67004, 21.29588],
                [48.62929, 21.37178]
            ]
        }, {
            "Key": "10",
            "Value": [
                [48.62929, 21.37178],
                [48.63683, 21.38213],
                [48.65159, 21.40116],
                [48.67311, 21.42887],
                [48.64368, 21.48874],
                [48.61608, 21.53327],
                [48.60604, 21.56711],
                [48.58169, 21.57934],
                [48.533807, 21.616475],
                [48.52172, 21.6262],
                [48.46094, 21.64444],
                [48.40282, 21.6674],
                [48.39392, 21.70739],
                [48.39034, 21.75771],
                [48.38954, 21.8083],
                [48.39032, 21.91384],
                [48.39944, 21.99927],
                [48.40713, 22.02501],
                [48.41355, 22.05629],
                [48.41642, 22.07036],
                [48.420059, 22.087412]
            ]
        }],
        "Angle": 55,
        "OrderInStation": 0
    }, {
        "Nazov": "Os 8983 ",
        "Popis": "(01.02.2019 22:53) Humenné -> Medzilaborce (01.02.2019 23:50)",
        "Meska": 0,
        "MeskaColor": "green",
        "MeskaText": "V stanici Radvaň nad Laborcom išiel včas",
        "MeskaTextColor": "#006AA0",
        "InfoZoStanice": "Radvaň nad Laborcom",
        "Cas": "01.02.2019 23:28",
        "CasPlan": "01.02.2019 23:28",
        "Dopravca": "Železničná spoločnosť Slovensko,a.s.",
        "Poznamka": "",
        "Position": [49.13492, 21.92189],
        "Trasa": [{
            "Key": "30",
            "Value": [
                [48.93015, 21.90119],
                [48.93358, 21.912038],
                [48.95422, 21.94545],
                [48.96574, 21.94706],
                [49.003506, 21.94402],
                [49.026598, 21.947887],
                [49.05145, 21.95465],
                [49.07283, 21.95494],
                [49.096253, 21.941682],
                [49.13492, 21.92189]
            ]
        }, {
            "Key": "10",
            "Value": [
                [49.13492, 21.92189],
                [49.15489, 21.91285],
                [49.17329, 21.90057],
                [49.18774, 21.89711],
                [49.205076, 21.887247],
                [49.22786, 21.89442],
                [49.24194, 21.90393],
                [49.26186, 21.90506]
            ]
        }],
        "Angle": -26,
        "OrderInStation": 0
    }, {
        "Nazov": "Os 9189 ",
        "Popis": "(01.02.2019 23:26) Prešov -> Vranov nad Topľou (02.02.2019 00:22)",
        "Meska": 0,
        "MeskaColor": "green",
        "MeskaText": "V stanici Kapušany pri Prešove išiel včas",
        "MeskaTextColor": "#006AA0",
        "InfoZoStanice": "Kapušany pri Prešove",
        "Cas": "01.02.2019 23:37",
        "CasPlan": "01.02.2019 23:37",
        "Dopravca": "Železničná spoločnosť Slovensko,a.s.",
        "Poznamka": "",
        "Position": [49.04386, 21.32044],
        "Trasa": [{
            "Key": "30",
            "Value": [
                [48.983379, 21.249126],
                [49.01659, 21.26712],
                [49.04386, 21.32044]
            ]
        }, {
            "Key": "10",
            "Value": [
                [49.04386, 21.32044],
                [49.04731, 21.35914],
                [49.04906, 21.40544],
                [49.03356, 21.45952],
                [49.024193, 21.504707],
                [49.019015, 21.519728],
                [49.00356, 21.54171],
                [48.98993, 21.56926],
                [48.95285, 21.58418],
                [48.93231, 21.59968],
                [48.91315, 21.6385],
                [48.89062, 21.67319]
            ]
        }],
        "Angle": 85,
        "OrderInStation": 0
    }, {
        "Nazov": "Os 9283 ",
        "Popis": "(01.02.2019 23:20) Prešov -> Bardejov (02.02.2019 00:24)",
        "Meska": 1,
        "MeskaColor": "green",
        "MeskaText": "V stanici Kapušany pri Prešove meškal 1 minútu",
        "MeskaTextColor": "#ff0000",
        "InfoZoStanice": "Kapušany pri Prešove",
        "Cas": "01.02.2019 23:33",
        "CasPlan": "01.02.2019 23:32",
        "Dopravca": "Železničná spoločnosť Slovensko,a.s.",
        "Poznamka": "",
        "Position": [49.04386, 21.32044],
        "Trasa": [{
            "Key": "30",
            "Value": [
                [48.983379, 21.249126],
                [49.01659, 21.26712],
                [49.04386, 21.32044]
            ]
        }, {
            "Key": "10",
            "Value": [
                [49.04386, 21.32044],
                [49.06741, 21.334],
                [49.08837, 21.30677],
                [49.09992, 21.31268],
                [49.10748, 21.31248],
                [49.14945, 21.31413],
                [49.165162, 21.29009],
                [49.19733, 21.27781],
                [49.215922, 21.266622],
                [49.23368, 21.24267],
                [49.261, 21.25052],
                [49.29661, 21.28301]
            ]
        }],
        "Angle": 31,
        "OrderInStation": 1
    }, {
        "Nazov": "Os 9284 ",
        "Popis": "(01.02.2019 22:35) Bardejov -> Prešov (01.02.2019 23:50)",
        "Meska": 0,
        "MeskaColor": "green",
        "MeskaText": "V stanici Kapušany pri Prešove išiel včas",
        "MeskaTextColor": "#006AA0",
        "InfoZoStanice": "Kapušany pri Prešove",
        "Cas": "01.02.2019 23:27",
        "CasPlan": "01.02.2019 23:27",
        "Dopravca": "Železničná spoločnosť Slovensko,a.s.",
        "Poznamka": "",
        "Position": [49.04386, 21.32044],
        "Trasa": [{
            "Key": "30",
            "Value": [
                [49.29661, 21.28301],
                [49.261, 21.25052],
                [49.23368, 21.24267],
                [49.215922, 21.266622],
                [49.19733, 21.27781],
                [49.165162, 21.29009],
                [49.14945, 21.31413],
                [49.10748, 21.31248],
                [49.09992, 21.31268],
                [49.08837, 21.30677],
                [49.06741, 21.334],
                [49.04386, 21.32044]
            ]
        }, {
            "Key": "10",
            "Value": [
                [49.04386, 21.32044],
                [49.01659, 21.26712],
                [48.983379, 21.249126]
            ]
        }],
        "Angle": -115,
        "OrderInStation": 2
    }, {
        "Nazov": "Os 9487 ",
        "Popis": "(01.02.2019 22:53) Humenné -> Stakčín (01.02.2019 23:40)",
        "Meska": 0,
        "MeskaColor": "green",
        "MeskaText": "V stanici Snina išiel včas",
        "MeskaTextColor": "#006AA0",
        "InfoZoStanice": "Snina",
        "Cas": "01.02.2019 23:34",
        "CasPlan": "01.02.2019 23:34",
        "Dopravca": "Železničná spoločnosť Slovensko,a.s.",
        "Poznamka": "",
        "Position": [48.983733, 22.172956],
        "Trasa": [{
            "Key": "30",
            "Value": [
                [48.93015, 21.90119],
                [48.93358, 21.912038],
                [48.932133, 21.958126],
                [48.933803, 21.990302],
                [48.936426, 22.000694],
                [48.94822, 22.0354],
                [48.95489, 22.05519],
                [48.9586, 22.06654],
                [48.97813, 22.10312],
                [48.99073, 22.13573],
                [48.98989, 22.15668],
                [48.983733, 22.172956]
            ]
        }, {
            "Key": "10",
            "Value": [
                [48.983733, 22.172956],
                [48.996219, 22.218141]
            ]
        }],
        "Angle": 75,
        "OrderInStation": 0
    }, {
        "Nazov": "Os 9488 ",
        "Popis": "(01.02.2019 22:51) Stakčín -> Humenné (01.02.2019 23:40)",
        "Meska": 0,
        "MeskaColor": "green",
        "MeskaText": "V stanici Dlhé nad Cirochou išiel včas",
        "MeskaTextColor": "#006AA0",
        "InfoZoStanice": "Dlhé nad Cirochou",
        "Cas": "01.02.2019 23:18",
        "CasPlan": "01.02.2019 23:18",
        "Dopravca": "Železničná spoločnosť Slovensko,a.s.",
        "Poznamka": "",
        "Position": [48.95489, 22.05519],
        "Trasa": [{
            "Key": "30",
            "Value": [
                [48.996219, 22.218141],
                [48.983733, 22.172956],
                [48.98989, 22.15668],
                [48.99073, 22.13573],
                [48.97813, 22.10312],
                [48.9586, 22.06654],
                [48.95489, 22.05519]
            ]
        }, {
            "Key": "10",
            "Value": [
                [48.95489, 22.05519],
                [48.94822, 22.0354],
                [48.936426, 22.000694],
                [48.933803, 21.990302],
                [48.932133, 21.958126],
                [48.93358, 21.912038],
                [48.93015, 21.90119]
            ]
        }],
        "Angle": -107,
        "OrderInStation": 0
    }, {
        "Nazov": "REX 15915 Poloniny",
        "Popis": "(01.02.2019 23:13) Košice -> Humenné (02.02.2019 00:45)",
        "Meska": 4,
        "MeskaColor": "green",
        "MeskaText": "V stanici Ruskov meškal 4 minúty",
        "MeskaTextColor": "#ff0000",
        "InfoZoStanice": "Ruskov",
        "Cas": "01.02.2019 23:37",
        "CasPlan": "01.02.2019 23:33",
        "Dopravca": "Železničná spoločnosť Slovensko,a.s.",
        "Poznamka": "",
        "Position": [48.67311, 21.42887],
        "Trasa": [{
            "Key": "30",
            "Value": [
                [48.72291, 21.26872],
                [48.7087, 21.266058],
                [48.685606, 21.273994],
                [48.67004, 21.29588],
                [48.62929, 21.37178],
                [48.63683, 21.38213],
                [48.65159, 21.40116],
                [48.67311, 21.42887]
            ]
        }, {
            "Key": "10",
            "Value": [
                [48.67311, 21.42887],
                [48.64368, 21.48874],
                [48.61608, 21.53327],
                [48.60604, 21.56711],
                [48.60062, 21.57339],
                [48.61264, 21.629827],
                [48.63306, 21.71184],
                [48.65229, 21.77576],
                [48.67913, 21.83458],
                [48.68898, 21.84448],
                [48.69636, 21.85185],
                [48.729827, 21.88689],
                [48.75074, 21.89858],
                [48.79786, 21.86005],
                [48.8181, 21.8435],
                [48.84374, 21.82732],
                [48.86766, 21.82483],
                [48.889271, 21.832971],
                [48.90324, 21.84146],
                [48.93015, 21.90119]
            ]
        }],
        "Angle": 114,
        "OrderInStation": 0
    }],
    "id": 2
}